date	size'/'remotesize	flags(request:Update,Range state:File response:Modified,Chunked,gZipped)	statuscode	status ('servermsg')	MIME	Etag|Date	URL	localfile	(from URL)
00:19:54	0/0	---M--	301	error ('Moved%20Permanently')	text/html	date:Wed,%2029%20Nov%202017%2005:19:54%20GMT	http://www.theguardian.com/us/technology	www.theguardian.com/us/technology.0.delayed	(from )
00:19:55	1505/1505	------	200	untouched ('OK')	text/plain	etag:%2259dcac93-5e1%22	https://www.theguardian.com/robots.txt		(from )
00:19:55	510963/510963	---M-Z	200	added ('OK')	text/html	etag:W/%22hash4250241805923826787%22	https://www.theguardian.com/us/technology	www.theguardian.com/us/technology.html	(from )
00:19:55	27687/27687	---M-Z	404	error ('Not%20Found')	text/html	etag:W/%22guRandomEtag464687731715656948%22	https://www.theguardian.com/us/ios-app://409128287/gnmguardian/us/technology?contenttype=front&source=google	www.theguardian.com/us/ios-app_/409128287/gnmguardian/us/technology38d8	(from https://www.theguardian.com/us/technology)
00:19:56	156/156	------	404	error ('Not%20Found')	text/html	etag:W/%22guRandomEtag-11635226631440119058%22	https://www.theguardian.com/us/GET	www.theguardian.com/us/GET.4.delayed	(from https://www.theguardian.com/us/technology)
00:19:56	178/178	------	301	error ('Moved%20Permanently')	text/html	date:Wed,%2029%20Nov%202017%2005:19:53%20GMT	https://www.theguardian.com/us/public/edit/	www.theguardian.com/us/public/edit/index.html	(from https://www.theguardian.com/us/technology)
00:19:56	156/156	------	301	error ('Moved%20Permanently')	text/html	date:Wed,%2029%20Nov%202017%2005:19:53%20GMT	http://www.theguardian.com/us/public/edit	www.theguardian.com/us/public/edit.5.delayed	(from https://www.theguardian.com/us/public/edit/)
00:19:56	27687/27687	------	404	error ('Not%20Found')	text/html	etag:W/%22guRandomEtag-20935105501943743529%22	https://www.theguardian.com/us/public/edit	www.theguardian.com/us/public/edit.6.delayed	(from https://www.theguardian.com/us/public/edit/)
